Aqib,Ahmed,
Francisco Javier,Arias,Cué
Johnny Stibbs,Bermúdez,Soria
Pablo,Bosch,Pérez
Ignasi,Brugada,Andueza
Alejandro,Carreño,Rubio
Blai,Celma,Monserrat
Juan Ramón,Diéguez,Torres
Carlos,Esteban,Casado
Alex,Francisco,Tinaya
Cauan,Goes,Mateos
Abel,Gres,Torres
Pablo,Hernando,Marrugat
Jacint,Iglesias,Casanova
Victor,Laguillo,Gracia
Guillem,León,Font
Josthyn Maurici,Loma,Duran
Oriol,Marin,Martinez
Jordi,Martí,Vilà
Arnau,Miguel,Larripa
David,Moraño,Ureña
Pol,Nuñez,Rubio
Marc,Palleja,Torrubia
Pol,Pastallé,Puig
Erik,Perdigones,Garcia
Sergio Hernan,Pinto,Cachique
Adrià,Redondo,Miras
Rebeca,Rubio,Lopez
Omar,Yagüe,Garizuain
