{"pelis" : { "Avatar" :{
  "_id": "0499549",
  "year": 2009,
  "rating": "PG-13",
  "runtime": 162,
  "genre": "AVYS",
  "earnings_rank": 1,
  "actors": [
    {
      "id": "0941777",
      "name": "Sam Worthington"
    },
    {
      "id": "0757855",
      "name": "Zoe Saldana"
    },
    {
      "id": "0000244",
      "name": "Sigourney Weaver"
    },
    {
      "id": "0002332",
      "name": "Stephen Lang"
    },
    {
      "id": "0735442",
      "name": "Michelle Rodriguez"
    }
  ],
  "directors": [
    {
      "id": "0000116",
      "name": "James Cameron"
    }
  ]
},

 "Titanic":
{
  "_id": "0120338",
  "year": 1997,
  "rating": "PG-13",
  "runtime": 194,
  "genre": "DR",
  "earnings_rank": 2,
  "actors": [
    {
      "id": "0000138",
      "name": "Leonardo DiCaprio"
    },
    {
      "id": "0000701",
      "name": "Kate Winslet"
    },
    {
      "id": "0000708",
      "name": "Billy Zane"
    },
    {
      "id": "0000870",
      "name": "Kathy Bates"
    },
    {
      "id": "0000200",
      "name": "Bill Paxton"
    }
  ],
  "directors": [
    {
      "id": "0000116",
      "name": "James Cameron"
    }
  ]
},
"The Avengers":
{
  "_id": "0848228",
  "year": 2012,
  "rating": "PG-13",
  "runtime": 143,
  "genre": "A",
  "earnings_rank": 3,
  "actors": [
    {
      "id": "0000375",
      "name": "Robert Downey Jr."
    },
    {
      "id": "0262635",
      "name": "Chris Evans"
    },
    {
      "id": "0749263",
      "name": "Mark Ruffalo"
    },
    {
      "id": "1165110",
      "name": "Chris Hemsworth"
    },
    {
      "id": "0424060",
      "name": "Scarlett Johansson"
    }
  ],
  "directors": [
    {
      "id": "0923736",
      "name": "Joss Whedon"
    }
  ]
},
"The Dark Knight":
{
  "_id": "0468569",
  "year": 2008,
  "rating": "PG-13",
  "runtime": 152,
  "genre": "AT",
  "earnings_rank": 4,
  "actors": [
    {
      "id": "0000288",
      "name": "Christian Bale"
    },
    {
      "id": "0005132",
      "name": "Heath Ledger"
    },
    {
      "id": "0001173",
      "name": "Aaron Eckhart"
    },
    {
      "id": "0000323",
      "name": "Michael Caine"
    },
    {
      "id": "0350454",
      "name": "Maggie Gyllenhaal"
    }
  ],
  "directors": [
    {
      "id": "0634240",
      "name": "Christopher Nolan"
    }
  ]
},
"Despicable Me 2" : {
  "_id": "1690953",
  "year": 2013,
  "rating": "PG",
  "runtime": 98,
  "genre": "N",
  "earnings_rank": 24,
  "actors": [
    {
      "id": "0136797",
      "name": "Steve Carell"
    },
    {
      "id": "1325419",
      "name": "Kristen Wiig"
    },
    {
      "id": "0000973",
      "name": "Benjamin Bratt"
    },
    {
      "id": "1388927",
      "name": "Miranda Cosgrove"
    },
    {
      "id": "1258970",
      "name": "Russell Brand"
    }
  ],
  "directors": [
    {
      "id": "1853544",
      "name": "Pierre Coffin"
    },
    {
      "id": "0719208",
      "name": "Chris Renaud"
    }
  ]
}
,
"Star Wars: Episode I - The Phantom Menace":
{
  "_id": "0120915",
  "year": 1999,
  "rating": "PG",
  "runtime": 133,
  "genre": "AVS",
  "earnings_rank": 5,
  "actors": [
    {
      "id": "0000553",
      "name": "Liam Neeson"
    },
    {
      "id": "0000191",
      "name": "Ewan McGregor"
    },
    {
      "id": "0000204",
      "name": "Natalie Portman"
    },
    {
      "id": "0005157",
      "name": "Jake Lloyd"
    },
    {
      "id": "0000278",
      "name": "Pernilla August"
    }
  ],
  "directors": [
    {
      "id": "0000184",
      "name": "George Lucas"
    }
  ]
},
"Star Wars":
{
  "_id": "0076759",
  "year": 1977,
  "rating": "PG",
  "runtime": 121,
  "genre": "AVYS",
  "earnings_rank": 6,
  "actors": [
    {
      "id": "0000434",
      "name": "Mark Hamill"
    },
    {
      "id": "0000148",
      "name": "Harrison Ford"
    },
    {
      "id": "0000402",
      "name": "Carrie Fisher"
    },
    {
      "id": "0001088",
      "name": "Peter Cushing"
    },
    {
      "id": "0000027",
      "name": "Alec Guinness"
    }
  ],
  "directors": [
    {
      "id": "0000184",
      "name": "George Lucas"
    }
  ]
},
"The Dark Knight Rises":
{
  "_id": "1345836",
  "year": 2012,
  "rating": "PG-13",
  "runtime": 165,
  "genre": "A",
  "earnings_rank": 7,
  "actors": [
    {
      "id": "0000288",
      "name": "Christian Bale"
    },
    {
      "id": "0000198",
      "name": "Gary Oldman"
    },
    {
      "id": "0362766",
      "name": "Tom Hardy"
    },
    {
      "id": "0330687",
      "name": "Joseph Gordon-Levitt"
    },
    {
      "id": "0004266",
      "name": "Anne Hathaway"
    }
  ],
  "directors": [
    {
      "id": "0634240",
      "name": "Christopher Nolan"
    }
  ]
},
"Shrek 2":
{
  "_id": "0298148",
  "year": 2004,
  "rating": "PG",
  "runtime": 92,
  "genre": "VNCFY",
  "earnings_rank": 8,
  "actors": [
    {
      "id": "0000196",
      "name": "Mike Myers"
    },
    {
      "id": "0000552",
      "name": "Eddie Murphy"
    },
    {
      "id": "0000139",
      "name": "Cameron Diaz"
    },
    {
      "id": "0000267",
      "name": "Julie Andrews"
    },
    {
      "id": "0000104",
      "name": "Antonio Banderas"
    }
  ],
  "directors": [
    {
      "id": "0011470",
      "name": "Andrew Adamson"
    }
  ]
},

"Pirates of the Caribbean: Dead Man's Chest":
{
  "_id": "0383574",
  "name": "Pirates of the Caribbean: Dead Man's Chest",
  "year": 2006,
  "rating": "PG-13",
  "runtime": 150,
  "genre": "AVCY",
  "earnings_rank": 10,
  "actors": [
    {
      "id": "0000136",
      "name": "Johnny Depp"
    },
    {
      "id": "0089217",
      "name": "Orlando Bloom"
    },
    {
      "id": "0461136",
      "name": "Keira Knightley"
    },
    {
      "id": "0202603",
      "name": "Jack Davenport"
    },
    {
      "id": "0631490",
      "name": "Bill Nighy"
    }
  ],
  "directors": [
    {
      "id": "0893659",
      "name": "Gore Verbinski"
    }
  ]
},
"Lion King, The":
{
  "_id": "0110357",
  "name": "Lion King, The",
  "year": 1994,
  "rating": "G",
  "runtime": 89,
  "genre": "VNCFL",
  "earnings_rank": 11,
  "actors": [
    {
      "id": "0001795",
      "name": "Jonathan Taylor Thomas"
    },
    {
      "id": "0000111",
      "name": "Matthew Broderick"
    },
    {
      "id": "0915868",
      "name": "Jason Weaver"
    },
    {
      "id": "0930990",
      "name": "Joseph Williams"
    },
    {
      "id": "0000460",
      "name": "Jeremy Irons"
    }
  ],
  "directors": [
    {
      "id": "0021249",
      "name": "Roger Allers"
    }
  ]
},
"Toy Story 3":
{
  "_id": "0435761",
  "name": "Toy Story 3",
  "year": 2010,
  "rating": "G",
  "runtime": 103,
  "genre": "VNCFY",
  "earnings_rank": 12,
  "actors": [
    {
      "id": "0000158",
      "name": "Tom Hanks"
    },
    {
      "id": "0000741",
      "name": "Tim Allen"
    },
    {
      "id": "0000349",
      "name": "Joan Cusack"
    },
    {
      "id": "0000885",
      "name": "Ned Beatty"
    },
    {
      "id": "0725543",
      "name": "Don Rickles"
    }
  ],
  "directors": [
    {
      "id": "0881279",
      "name": "Lee Unkrich"
    }
  ]
},
"Iron Man 3":
{
  "_id": "1300854",
  "name": "Iron Man 3",
  "year": 2013,
  "rating": "PG-13",
  "runtime": 130,
  "genre": "A",
  "earnings_rank": 13,
  "actors": [
    {
      "id": "0000375",
      "name": "Robert Downey Jr."
    },
    {
      "id": "0000569",
      "name": "Gwyneth Paltrow"
    },
    {
      "id": "0000332",
      "name": "Don Cheadle"
    },
    {
      "id": "0001602",
      "name": "Guy Pearce"
    },
    {
      "id": "0356017",
      "name": "Rebecca Hall"
    }
  ],
  "directors": [
    {
      "id": "0000948",
      "name": "Shane Black"
    }
  ]
},
"The Hunger Games":
{
  "_id": "1392170",
  "name": "The Hunger Games",
  "year": 2012,
  "rating": "PG-13",
  "runtime": 142,
  "genre": "A",
  "earnings_rank": 14,
  "actors": [
    {
      "id": "0001804",
      "name": "Stanley Tucci"
    },
    {
      "id": "0004747",
      "name": "Wes Bentley"
    },
    {
      "id": "2225369",
      "name": "Jennifer Lawrence"
    },
    {
      "id": "3094377",
      "name": "Willow Shields"
    },
    {
      "id": "2955013",
      "name": "Liam Hemsworth"
    }
  ],
  "directors": [
    {
      "id": "0002657",
      "name": "Gary Ross"
    }
  ]
},
"Spider-Man":
{
  "_id": "0145487",
  "name": "Spider-Man",
  "year": 2002,
  "rating": "PG-13",
  "runtime": 121,
  "genre": "AYST",
  "earnings_rank": 15,
  "actors": [
    {
      "id": "0001497",
      "name": "Tobey Maguire"
    },
    {
      "id": "0000353",
      "name": "Willem Dafoe"
    },
    {
      "id": "0000379",
      "name": "Kirsten Dunst"
    },
    {
      "id": "0290556",
      "name": "James Franco"
    },
    {
      "id": "0731772",
      "name": "Cliff Robertson"
    }
  ],
  "directors": [
    {
      "id": "0000600",
      "name": "Sam Raimi"
    }
  ]
},
"Jurassic Park":
{
  "_id": "0107290",
  "name": "Jurassic Park",
  "year": 1993,
  "rating": "PG-13",
  "runtime": 127,
  "genre": "AVHS",
  "earnings_rank": 16,
  "actors": [
    {
      "id": "0000554",
      "name": "Sam Neill"
    },
    {
      "id": "0000368",
      "name": "Laura Dern"
    },
    {
      "id": "0000156",
      "name": "Jeff Goldblum"
    },
    {
      "id": "0000277",
      "name": "Richard Attenborough"
    },
    {
      "id": "0669629",
      "name": "Bob Peck"
    }
  ],
  "directors": [
    {
      "id": "0000229",
      "name": "Steven Spielberg"
    }
  ]
}
 
}}
